<?xml version="1.0" encoding="utf-8"?>
<!-- Generator: Adobe Illustrator 25.0.0, SVG Export Plug-In . SVG Version: 6.00 Build 0)  -->
<svg version="1.1" xmlns="http://www.w3.org/2000/svg" xmlns:xlink="http://www.w3.org/1999/xlink" x="0px" y="0px"
	 viewBox="0 0 516 379.8" style="enable-background:new 0 0 516 379.8;" xml:space="preserve">
<style type="text/css">
	.st0{display:none;}
	.st1{display:inline;}
	.st2{clip-path:url(#SVGID_2_);fill:#D61653;}
	.st3{clip-path:url(#SVGID_2_);fill:#1A1A1A;}
	.st4{fill:#FFFFFF;}
	.st5{fill:#E50241;}
</style>
<g id="Ebene_2" class="st0">
	<g class="st1">
		<defs>
			<rect id="SVGID_1_" x="61.1" y="91.4" width="410.1" height="174.8"/>
		</defs>
		<clipPath id="SVGID_2_">
			<use xlink:href="#SVGID_1_"  style="overflow:visible;"/>
		</clipPath>
		<path class="st2" d="M372.1,238.3c0,2-0.6,3.6-1.9,4.6c-1.3,1.1-3.2,1.6-5.6,1.6h-6.7V232h6.7c2.5,0,4.4,0.5,5.6,1.7
			C371.5,234.7,372.1,236.3,372.1,238.3 M372.2,265.4h13l-9.3-13.5c2.7-1.3,4.8-3.1,6.2-5.4c1.5-2.3,2.2-5,2.2-8.1
			c0-3.2-0.8-6-2.3-8.4c-1.6-2.4-3.8-4.2-6.6-5.5c-2.9-1.3-6.2-1.9-10.1-1.9h-19.6v43h12.1v-11.4h6.6L372.2,265.4z M316,266.2
			c6.4,0,11.3-1.7,14.9-5.2c3.5-3.5,5.3-8.4,5.3-14.8v-23.8h-12v23.4c0,6.9-2.7,10.3-8.1,10.3c-5.4,0-8.2-3.4-8.2-10.3v-23.4h-12.1
			v23.8c0,6.4,1.8,11.3,5.3,14.8C304.7,264.5,309.6,266.2,316,266.2 M265.8,265.4H278V232h13.1v-9.6h-38.5v9.6h13.2V265.4z
			 M235,222.4v22.9l-19-22.9h-10v43h11.9v-22.9l19,22.9h10v-43H235z M175.6,256v-7.9h19.1V239h-19.1v-7.2h21.7v-9.4h-33.7v43H198
			V256H175.6z M143.8,254.7c-2,0.9-4.2,1.4-6.6,1.4c-2.4,0-4.5-0.5-6.3-1.6c-1.8-1-3.3-2.5-4.3-4.4c-1-1.9-1.5-4-1.5-6.4
			c0-3.7,1.1-6.7,3.4-8.9c2.2-2.2,5.2-3.3,8.9-3.3c4,0,7.5,1.6,10.4,4.8l7.7-7c-2.1-2.5-4.8-4.5-8-5.8c-3.2-1.3-6.8-2-10.8-2
			c-4.6,0-8.7,1-12.3,2.9s-6.5,4.6-8.5,7.9c-2,3.4-3.1,7.2-3.1,11.5s1,8.1,3.1,11.5c2,3.4,4.9,6,8.5,7.9c3.6,1.9,7.7,2.9,12.1,2.9
			c3.2,0,6.4-0.5,9.6-1.4c3.2-0.9,6-2.3,8.5-4V243h-10.7V254.7z M80.4,248.1l5.5-13.7l5.5,13.7H80.4z M98.4,265.4H111l-19-43H80
			l-19,43h12.4l3.4-8.3H95L98.4,265.4z"/>
		<path class="st2" d="M340.9,157.3v22.9l-19-22.9h-10v43h11.9v-22.9l19,22.9h10v-43H340.9z M281.5,190.9v-7.9h19.1V174h-19.1v-7.2
			h21.7v-9.4h-33.7v43h34.5v-9.4H281.5z M250.9,200.3H265l-18.5-23.9l17.6-19h-13.4l-16.6,17.9v-17.9h-12v43h12v-10.7l4.5-4.8
			L250.9,200.3z M201.9,173.2c0,2-0.6,3.6-1.9,4.6c-1.3,1.1-3.2,1.6-5.6,1.6h-6.7v-12.6h6.7c2.5,0,4.4,0.5,5.6,1.7
			C201.2,169.7,201.9,171.2,201.9,173.2 M202,200.3h13l-9.3-13.5c2.7-1.3,4.8-3.1,6.2-5.4c1.5-2.3,2.2-5,2.2-8.1
			c0-3.2-0.8-6-2.3-8.4c-1.6-2.4-3.8-4.2-6.6-5.5c-2.9-1.3-6.2-1.9-10.1-1.9h-19.6v43h12.1v-11.4h6.6L202,200.3z M140.2,183
			l5.5-13.7l5.5,13.7H140.2z M158.1,200.3h12.6l-19-43h-12l-19,43h12.4l3.4-8.3h18.2L158.1,200.3z M116.2,200.3l-0.1-43h-10
			l-14.7,24.8l-15.1-24.8h-10v43h11.2v-22.2l11,17.9h5.4l11-18.5l0.1,22.8H116.2z"/>
		<path class="st3" d="M448.7,125.9V118h19.1v-9.1h-19.1v-7.2h21.7v-9.4h-33.7v43h34.5v-9.4H448.7z M418.2,135.2h14.1l-18.5-23.9
			l17.6-19H418l-16.6,17.9V92.3h-12v43h12v-10.7l4.5-4.8L418.2,135.2z M363.5,136.1c4.1,0,7.6-0.6,10.4-1.9c2.9-1.2,5-2.9,6.4-5
			c1.4-2.1,2.1-4.4,2.1-7c0-3-0.8-5.3-2.4-7.1c-1.6-1.7-3.4-3-5.6-3.8c-2.1-0.8-4.9-1.5-8.1-2.2c-2.9-0.6-5-1.2-6.3-1.8
			c-1.3-0.6-2-1.4-2-2.6c0-1.1,0.5-2.1,1.7-2.8c1.1-0.7,2.9-1.1,5.3-1.1c3.8,0,7.8,1.1,11.9,3.3l3.7-9c-2.1-1.2-4.5-2.2-7.2-2.8
			c-2.7-0.6-5.5-1-8.3-1c-4.1,0-7.6,0.6-10.5,1.8c-2.8,1.2-5,2.9-6.4,5c-1.4,2.1-2.1,4.5-2.1,7.1c0,3,0.8,5.4,2.3,7.1
			c1.6,1.8,3.4,3,5.6,3.8c2.2,0.8,4.9,1.5,8.1,2.2c2.9,0.7,5.1,1.3,6.4,1.9c1.3,0.6,2,1.5,2,2.7c0,2.3-2.3,3.5-7,3.5
			c-2.5,0-4.9-0.4-7.5-1.2c-2.5-0.8-4.8-1.8-6.7-3.1l-4,9c2,1.4,4.7,2.6,8,3.4C356.7,135.7,360,136.1,363.5,136.1 M322.6,136.1
			c4.1,0,7.6-0.6,10.4-1.9c2.9-1.2,5-2.9,6.4-5c1.4-2.1,2.1-4.4,2.1-7c0-3-0.8-5.3-2.4-7.1c-1.6-1.7-3.4-3-5.6-3.8
			c-2.1-0.8-4.9-1.5-8.1-2.2c-2.9-0.6-5-1.2-6.3-1.8c-1.3-0.6-2-1.4-2-2.6c0-1.1,0.5-2.1,1.7-2.8c1.1-0.7,2.9-1.1,5.3-1.1
			c3.8,0,7.8,1.1,11.9,3.3l3.7-9c-2.1-1.2-4.5-2.2-7.2-2.8c-2.7-0.6-5.5-1-8.3-1c-4.1,0-7.6,0.6-10.5,1.8c-2.8,1.2-5,2.9-6.4,5
			c-1.4,2.1-2.1,4.5-2.1,7.1c0,3,0.8,5.4,2.3,7.1c1.6,1.8,3.4,3,5.6,3.8c2.2,0.8,4.9,1.5,8.1,2.2c2.9,0.7,5.1,1.3,6.4,1.9
			c1.3,0.6,2,1.5,2,2.7c0,2.3-2.3,3.5-7,3.5c-2.5,0-4.9-0.4-7.5-1.2c-2.5-0.8-4.8-1.8-6.7-3.1l-4,9c2,1.4,4.7,2.6,8,3.4
			C315.7,135.7,319.1,136.1,322.6,136.1 M277,125.9V118h19.1v-9.1H277v-7.2h21.7v-9.4H265v43h34.5v-9.4H277z M243,135.2h12.1v-43
			H243V135.2z M204.3,135.2H237v-9.6h-20.5V92.3h-12.1V135.2z M182.4,92.3v16.1h-16.6V92.3h-12.1v43h12.1v-16.8h16.6v16.8h12.1v-43
			H182.4z M128.6,136.1c3.9,0,7.5-0.7,10.6-2.1s5.8-3.4,7.9-6l-7.7-7c-2.8,3.4-6.2,5-10.1,5c-2.3,0-4.4-0.5-6.2-1.5
			c-1.8-1-3.2-2.5-4.2-4.3c-1-1.9-1.5-4-1.5-6.4c0-2.4,0.5-4.6,1.5-6.4c1-1.9,2.4-3.3,4.2-4.3c1.8-1,3.9-1.5,6.2-1.5
			c4,0,7.3,1.7,10.1,5l7.7-7c-2.1-2.6-4.7-4.6-7.9-6c-3.1-1.4-6.7-2.1-10.6-2.1c-4.5,0-8.5,1-12.1,2.9c-3.6,1.9-6.4,4.6-8.4,7.9
			c-2,3.4-3.1,7.2-3.1,11.5s1,8.1,3.1,11.5c2,3.4,4.9,6,8.4,7.9C120,135.1,124.1,136.1,128.6,136.1 M81.3,136.1
			c4.1,0,7.6-0.6,10.4-1.9c2.9-1.2,5-2.9,6.4-5c1.4-2.1,2.1-4.4,2.1-7c0-3-0.8-5.3-2.4-7.1c-1.6-1.7-3.4-3-5.6-3.8
			c-2.1-0.8-4.9-1.5-8.1-2.2c-2.9-0.6-5-1.2-6.3-1.8c-1.3-0.6-2-1.4-2-2.6c0-1.1,0.6-2.1,1.7-2.8c1.1-0.7,2.9-1.1,5.3-1.1
			c3.8,0,7.8,1.1,11.9,3.3l3.7-9c-2.1-1.2-4.5-2.2-7.2-2.8c-2.7-0.6-5.5-1-8.3-1c-4.1,0-7.6,0.6-10.5,1.8c-2.8,1.2-5,2.9-6.4,5
			c-1.4,2.1-2.1,4.5-2.1,7.1c0,3,0.8,5.4,2.3,7.1c1.6,1.8,3.4,3,5.6,3.8c2.2,0.8,4.9,1.5,8.1,2.2c2.9,0.7,5.1,1.3,6.4,1.9
			c1.3,0.6,2,1.5,2,2.7c0,2.3-2.3,3.5-7,3.5c-2.5,0-5-0.4-7.5-1.2c-2.5-0.8-4.8-1.8-6.7-3.1l-4,9c2,1.4,4.7,2.6,8,3.4
			C74.5,135.7,77.8,136.1,81.3,136.1"/>
	</g>
</g>
<g id="Ebene_1">
	<path class="st4" d="M72.4,135.7c-3.4-0.9-6.1-2.1-8.2-3.5l4.1-9.2c2,1.3,4.3,2.4,6.9,3.1c2.6,0.8,5.2,1.2,7.7,1.2
		c4.8,0,7.2-1.2,7.2-3.6c0-1.3-0.7-2.2-2-2.8c-1.4-0.6-3.6-1.2-6.6-1.9c-3.3-0.7-6.1-1.5-8.3-2.3c-2.2-0.8-4.1-2.1-5.7-3.9
		c-1.6-1.8-2.4-4.2-2.4-7.3c0-2.7,0.7-5.1,2.2-7.3c1.5-2.2,3.7-3.9,6.6-5.1c2.9-1.3,6.5-1.9,10.7-1.9c2.9,0,5.8,0.3,8.6,1
		c2.8,0.7,5.3,1.6,7.4,2.9l-3.8,9.3c-4.2-2.3-8.3-3.4-12.2-3.4c-2.5,0-4.3,0.4-5.4,1.1c-1.1,0.7-1.7,1.7-1.7,2.9
		c0,1.2,0.7,2.1,2,2.6c1.3,0.6,3.5,1.2,6.5,1.8c3.4,0.7,6.1,1.5,8.3,2.3c2.2,0.8,4.1,2.1,5.7,3.9c1.6,1.8,2.4,4.2,2.4,7.3
		c0,2.6-0.7,5-2.2,7.2c-1.5,2.1-3.7,3.9-6.6,5.1c-2.9,1.3-6.5,1.9-10.7,1.9C79.2,137,75.7,136.6,72.4,135.7z"/>
	<path class="st4" d="M118.3,134.1c-3.7-2-6.6-4.7-8.7-8.2c-2.1-3.5-3.1-7.4-3.1-11.8c0-4.4,1-8.4,3.1-11.8c2.1-3.5,5-6.2,8.7-8.2
		c3.7-2,7.8-2.9,12.4-2.9c4,0,7.7,0.7,10.9,2.1c3.2,1.4,5.9,3.5,8.1,6.2l-7.9,7.2c-2.9-3.4-6.3-5.2-10.4-5.2c-2.4,0-4.5,0.5-6.4,1.6
		c-1.9,1.1-3.3,2.5-4.3,4.4c-1,1.9-1.5,4.1-1.5,6.6c0,2.5,0.5,4.7,1.5,6.6c1,1.9,2.5,3.4,4.3,4.4c1.9,1.1,4,1.6,6.4,1.6
		c4.1,0,7.5-1.7,10.4-5.2l7.9,7.2c-2.1,2.7-4.8,4.7-8.1,6.2c-3.2,1.4-6.9,2.1-10.9,2.1C126.1,137,121.9,136.1,118.3,134.1z"/>
	<path class="st4" d="M196.5,92.1v44.1H184V119h-17v17.2h-12.5V92.1H167v16.6h17V92.1H196.5z"/>
	<path class="st4" d="M204.3,92.1h12.5v34.2h21v9.9h-33.5V92.1z"/>
	<path class="st4" d="M244,92.1h12.5v44.1H244V92.1z"/>
	<path class="st4" d="M299.8,126.5v9.6h-35.4V92.1h34.6v9.6h-22.2v7.4h19.6v9.3h-19.6v8.1H299.8z"/>
	<path class="st4" d="M313.2,135.7c-3.4-0.9-6.1-2.1-8.2-3.5l4.1-9.2c2,1.3,4.3,2.4,6.9,3.1c2.6,0.8,5.2,1.2,7.7,1.2
		c4.8,0,7.2-1.2,7.2-3.6c0-1.3-0.7-2.2-2-2.8c-1.4-0.6-3.6-1.2-6.6-1.9c-3.3-0.7-6.1-1.5-8.3-2.3c-2.2-0.8-4.1-2.1-5.7-3.9
		c-1.6-1.8-2.4-4.2-2.4-7.3c0-2.7,0.7-5.1,2.2-7.3c1.5-2.2,3.7-3.9,6.6-5.1c2.9-1.3,6.5-1.9,10.7-1.9c2.9,0,5.8,0.3,8.6,1
		c2.8,0.7,5.3,1.6,7.4,2.9l-3.8,9.3c-4.2-2.3-8.3-3.4-12.2-3.4c-2.5,0-4.3,0.4-5.4,1.1c-1.1,0.7-1.7,1.7-1.7,2.9
		c0,1.2,0.7,2.1,2,2.6c1.3,0.6,3.5,1.2,6.5,1.8c3.4,0.7,6.1,1.5,8.3,2.3s4.1,2.1,5.7,3.9c1.6,1.8,2.4,4.2,2.4,7.3
		c0,2.6-0.7,5-2.2,7.2c-1.5,2.1-3.7,3.9-6.6,5.1c-2.9,1.3-6.5,1.9-10.7,1.9C320,137,316.6,136.6,313.2,135.7z"/>
	<path class="st4" d="M354.8,135.7c-3.4-0.9-6.1-2.1-8.2-3.5l4.1-9.2c2,1.3,4.3,2.4,6.9,3.1c2.6,0.8,5.2,1.2,7.7,1.2
		c4.8,0,7.2-1.2,7.2-3.6c0-1.3-0.7-2.2-2-2.8c-1.4-0.6-3.6-1.2-6.6-1.9c-3.3-0.7-6.1-1.5-8.3-2.3c-2.2-0.8-4.1-2.1-5.7-3.9
		c-1.6-1.8-2.4-4.2-2.4-7.3c0-2.7,0.7-5.1,2.2-7.3c1.5-2.2,3.7-3.9,6.6-5.1c2.9-1.3,6.5-1.9,10.7-1.9c2.9,0,5.8,0.3,8.6,1
		c2.8,0.7,5.3,1.6,7.4,2.9l-3.8,9.3c-4.2-2.3-8.3-3.4-12.2-3.4c-2.5,0-4.3,0.4-5.4,1.1c-1.1,0.7-1.7,1.7-1.7,2.9
		c0,1.2,0.7,2.1,2,2.6c1.3,0.6,3.5,1.2,6.5,1.8c3.4,0.7,6.1,1.5,8.3,2.3s4.1,2.1,5.7,3.9c1.6,1.8,2.4,4.2,2.4,7.3
		c0,2.6-0.7,5-2.2,7.2c-1.5,2.1-3.7,3.9-6.6,5.1c-2.9,1.3-6.5,1.9-10.7,1.9C361.6,137,358.2,136.6,354.8,135.7z"/>
	<path class="st4" d="M406.8,120.2l-4.7,5v11h-12.3V92.1h12.3v18.3l17.1-18.3h13.7l-18,19.5l19,24.6h-14.5L406.8,120.2z"/>
	<path class="st4" d="M472,126.5v9.6h-35.4V92.1h34.6v9.6h-22.2v7.4h19.6v9.3h-19.6v8.1H472z"/>
	<path class="st5" d="M107.1,199.8l-0.1-23.4l-11.3,19h-5.5L78.8,177v22.7H67.2v-44.1h10.3L93,181.1l15.1-25.5h10.3l0.1,44.1H107.1z
		"/>
	<path class="st5" d="M156.3,191.2h-18.6l-3.5,8.6h-12.7l19.5-44.1h12.3l19.5,44.1h-13L156.3,191.2z M152.7,182l-5.7-14.1l-5.7,14.1
		H152.7z"/>
	<path class="st5" d="M195.3,188h-6.8v11.7H176v-44.1h20.2c4,0,7.5,0.7,10.4,2c2.9,1.3,5.2,3.2,6.8,5.7c1.6,2.5,2.4,5.3,2.4,8.7
		c0,3.2-0.7,6-2.2,8.3c-1.5,2.4-3.6,4.2-6.4,5.6l9.5,13.9h-13.4L195.3,188z M201.2,167.2c-1.3-1.1-3.2-1.7-5.8-1.7h-6.9v12.9h6.9
		c2.6,0,4.5-0.6,5.8-1.7c1.3-1.1,2-2.7,2-4.8C203.2,169.9,202.5,168.3,201.2,167.2z"/>
	<path class="st5" d="M239.5,183.8l-4.7,5v11h-12.3v-44.1h12.3V174l17.1-18.3h13.7l-18,19.5l19,24.6h-14.5L239.5,183.8z"/>
	<path class="st5" d="M305.8,190.1v9.6h-35.4v-44.1H305v9.6h-22.2v7.4h19.6v9.3h-19.6v8.1H305.8z"/>
	<path class="st5" d="M354.3,155.7v44.1H344l-19.5-23.5v23.5h-12.2v-44.1h10.3l19.5,23.5v-23.5H354.3z"/>
	<path class="st5" d="M96.8,254.8H78.1l-3.5,8.6H62l19.5-44.1h12.3l19.5,44.1h-13L96.8,254.8z M93.1,245.6l-5.7-14.1l-5.7,14.1H93.1
		z"/>
	<path class="st5" d="M143.8,240.4h11v18.3c-2.5,1.8-5.4,3.2-8.7,4.2c-3.3,1-6.6,1.4-9.8,1.4c-4.6,0-8.8-1-12.5-2.9
		c-3.7-2-6.6-4.7-8.7-8.2c-2.1-3.5-3.1-7.4-3.1-11.8s1-8.4,3.1-11.8c2.1-3.5,5-6.2,8.8-8.2c3.7-2,8-2.9,12.7-2.9
		c4.1,0,7.8,0.7,11.1,2.1c3.3,1.4,6,3.4,8.2,6l-7.9,7.2c-3-3.3-6.6-4.9-10.7-4.9c-3.8,0-6.8,1.1-9.1,3.4c-2.3,2.3-3.5,5.3-3.5,9.2
		c0,2.4,0.5,4.6,1.6,6.5c1,1.9,2.5,3.4,4.4,4.5s4.1,1.6,6.5,1.6c2.4,0,4.6-0.5,6.7-1.4V240.4z"/>
	<path class="st5" d="M198.2,253.7v9.6h-35.4v-44.1h34.6v9.6h-22.2v7.4h19.6v9.3h-19.6v8.1H198.2z"/>
	<path class="st5" d="M247.9,219.3v44.1h-10.3l-19.5-23.5v23.5H206v-44.1h10.3l19.5,23.5v-23.5H247.9z"/>
	<path class="st5" d="M265.6,229.1H252v-9.9h39.5v9.9H278v34.2h-12.5V229.1z"/>
	<path class="st5" d="M301,259.2c-3.6-3.6-5.4-8.6-5.4-15.2v-24.7H308v24.4c0,7.1,2.8,10.6,8.4,10.6c5.5,0,8.3-3.5,8.3-10.6v-24.4
		H337V244c0,6.6-1.8,11.6-5.5,15.2c-3.6,3.6-8.7,5.4-15.3,5.4S304.6,262.7,301,259.2z"/>
	<path class="st5" d="M362.2,251.8h-6.8v11.6h-12.5v-44.1H363c4,0,7.5,0.8,10.4,2.1c2.9,1.3,5.2,3.2,6.8,5.7
		c1.6,2.5,2.4,5.3,2.4,8.7c0,3.2-0.7,6-2.2,8.3c-1.5,2.4-3.6,4.2-6.4,5.6l9.5,13.7h-13.4L362.2,251.8z M368.1,230.9
		c-1.3-1.1-3.2-1.7-5.8-1.7h-6.9v12.9h6.9c2.6,0,4.5-0.6,5.8-1.7c1.3-1.1,2-2.7,2-4.8C370,233.7,369.4,232.1,368.1,230.9z"/>
</g>
</svg>
